^C:\GIT\EJEMPLO_CPLEX_CPP\PRUEBACPLEX\PRUEBACPLEX\FACILITY.CPP
C:\GIT\EJEMPLO_CPLEX_CPP\PRUEBACPLEX\PRUEBACPLEX\X64\DEBUG\FACILITY.OBJ
C:\GIT\EJEMPLO_CPLEX_CPP\PRUEBACPLEX\PRUEBACPLEX\X64\DEBUG\VC110.PDB
^C:\GIT\EJEMPLO_CPLEX_CPP_UFL\PRUEBACPLEX\PRUEBACPLEX\FACILITY.CPP
C:\GIT\EJEMPLO_CPLEX_CPP_UFL\PRUEBACPLEX\PRUEBACPLEX\X64\DEBUG\FACILITY.OBJ
C:\GIT\EJEMPLO_CPLEX_CPP_UFL\PRUEBACPLEX\PRUEBACPLEX\X64\DEBUG\VC110.PDB
