C:\USERS\URIEL\DOCUMENTS\VISUAL STUDIO 2012\PROJECTS\PRUEBACPLEX\PRUEBACPLEX\X64\DEBUG\FACILITY.OBJ
C:\USERS\URIEL\DOCUMENTS\VISUAL STUDIO 2012\PROJECTS\PRUEBACPLEX\PRUEBACPLEX\X64\DEBUG\VC110.PDB
C:\GIT\PRUEBACPLEX\PRUEBACPLEX\X64\DEBUG\FACILITY.OBJ
C:\GIT\PRUEBACPLEX\PRUEBACPLEX\X64\DEBUG\VC110.PDB
C:\USERS\URIEL\DOCUMENTS\VISUAL STUDIO 2012\PROJECTS\PRUEBACPLEX\X64\DEBUG\PRUEBACPLEX.ILK
C:\USERS\URIEL\DOCUMENTS\VISUAL STUDIO 2012\PROJECTS\PRUEBACPLEX\X64\DEBUG\PRUEBACPLEX.EXE
C:\USERS\URIEL\DOCUMENTS\VISUAL STUDIO 2012\PROJECTS\PRUEBACPLEX\X64\DEBUG\PRUEBACPLEX.PDB
C:\GIT\PRUEBACPLEX\X64\DEBUG\PRUEBACPLEX.ILK
C:\GIT\PRUEBACPLEX\X64\DEBUG\PRUEBACPLEX.EXE
C:\GIT\PRUEBACPLEX\X64\DEBUG\PRUEBACPLEX.PDB
C:\GIT\PruebaCplex\PruebaCplex\x64\Debug\facility.obj
C:\GIT\PruebaCplex\PruebaCplex\x64\Debug\PruebaCplex.ilk
C:\GIT\PruebaCplex\PruebaCplex\x64\Debug\cl.command.1.tlog
C:\GIT\PruebaCplex\PruebaCplex\x64\Debug\CL.read.1.tlog
C:\GIT\PruebaCplex\PruebaCplex\x64\Debug\CL.write.1.tlog
C:\GIT\PruebaCplex\PruebaCplex\x64\Debug\link-cvtres.read.1.tlog
C:\GIT\PruebaCplex\PruebaCplex\x64\Debug\link-cvtres.write.1.tlog
C:\GIT\PruebaCplex\PruebaCplex\x64\Debug\link-rc.read.1.tlog
C:\GIT\PruebaCplex\PruebaCplex\x64\Debug\link-rc.write.1.tlog
C:\GIT\PruebaCplex\PruebaCplex\x64\Debug\link.command.1.tlog
C:\GIT\PruebaCplex\PruebaCplex\x64\Debug\link.read.1.tlog
C:\GIT\PruebaCplex\PruebaCplex\x64\Debug\link.read.2.tlog
C:\GIT\PruebaCplex\PruebaCplex\x64\Debug\link.write.1.tlog
C:\GIT\PruebaCplex\PruebaCplex\x64\Debug\vc110.idb
C:\GIT\PruebaCplex\PruebaCplex\x64\Debug\PruebaCplex.pdb
C:\GIT\PruebaCplex\PruebaCplex\x64\Debug\vc110.pdb
C:\GIT\PruebaCplex\x64\Debug\PruebaCplex.pdb
C:\GIT\PruebaCplex\x64\Debug\PruebaCplex.exe
C:\GIT\PruebaCplex\x64\Debug\PruebaCplex.ilk
