^C:\USERS\URIEL\DOCUMENTS\VISUAL STUDIO 2012\PROJECTS\PRUEBACPLEX\PRUEBACPLEX\FACILITY.CPP
C:\USERS\URIEL\DOCUMENTS\VISUAL STUDIO 2012\PROJECTS\PRUEBACPLEX\PRUEBACPLEX\X64\DEBUG\FACILITY.OBJ
C:\USERS\URIEL\DOCUMENTS\VISUAL STUDIO 2012\PROJECTS\PRUEBACPLEX\PRUEBACPLEX\X64\DEBUG\VC110.PDB
